ID du Document,Titre,Auteur,Date,URL,Texte,Type,Commentaires,Auteurs
0,[D] Simple Questions Thread,AutoModerator,2023-12-31 16:00:23,https://www.reddit.com/r/MachineLearning/comments/18vao7j/d_simple_questions_thread/,Please post your questions here instead of creating a new thread. Encourage others who create new posts for questions to post here instead!  Thread will stay alive until next one so keep posting after the date in the title.  Thanks to everyone for answering questions in the previous thread!,Reddit,43.0,
1,"Be Honest, What Sucks About Being a CV Engineer? [D]",vanteworldinfinity,2024-01-09 15:55:56,https://www.reddit.com/r/MachineLearning/comments/192hvop/be_honest_what_sucks_about_being_a_cv_engineer_d/,I'm currently applying to jobs so I'm interested to hear the harsh reality of what it's like.,Reddit,30.0,
2,What are weaknesses of the field currently? [D],convolutionality,2024-01-09 09:06:52,https://www.reddit.com/r/MachineLearning/comments/192aj3h/what_are_weaknesses_of_the_field_currently_d/,"Hi all,  Does anyone have any concept of technical and business related gaps and weaknesses of this field? Things that if were possible or more efficient, would make projects and model optimal? For example (not necessarily a massive case anymore) lack of quality datasets.   Thanks big time!",Reddit,40.0,
3,"From Cutting Planes Algorithms to Compression Schemes and Active
  Learning",Liva Ralaivola,2015-08-12 16:46:29+00:00,http://arxiv.org/abs/1508.02986v1,"Cutting-plane methods are well-studied localization(and optimization) algorithms. We show that they provide a natural framework to perform machinelearning ---and not just to solve optimization problems posed by machinelearning--- in addition to their intended optimization use. In particular, theyallow one to learn sparse classifiers and provide good compression schemes.Moreover, we show that very little effort is required to turn them intoeffective active learning methods. This last property provides a generic way todesign a whole family of active learning algorithms from existing passivemethods. We present numerical simulations testifying of the relevance ofcutting-plane methods for passive and active learning tasks.",Arxiv,,"[{'name': 'Liva Ralaivola'}, {'name': 'Ugo Louche'}]"
4,A State-of-the-Art Review on IoT botnet Attack Detection,Zainab Al-Othman,2020-10-02 12:48:54+00:00,http://arxiv.org/abs/2010.13852v1,"The Internet as we know it Today, comprises several fundamental interrelated networks, among which is the Internet of Things (IoT). Despite their versatility, several IoT devices are vulnerable from a security perspective, which renders them as a favorable target for multiple security breaches, especially botnet attacks. In this study, the conceptual frameworks of IoT botnet attacks will be explored, alongside several machinelearning based botnet detection techniques. This study also analyzes and contrasts several botnet Detection techniques based on the Bot-IoT Dataset; a recent realistic IoT dataset that comprises state-of-the-art IoT botnet attack scenarios.",Arxiv,,"[{'name': 'Zainab Al-Othman'}, {'name': 'Mouhammd Alkasassbeh'}, {'name': 'Sherenaz AL-Haj Baddar'}]"
5,"A Survey on Recent Advancements for AI Enabled Radiomics in
  Neuro-Oncology",Syed Muhammad Anwar,2019-10-16 16:50:02+00:00,http://arxiv.org/abs/1910.07470v1,"Artificial intelligence (AI) enabled radiomics has evolved immensely especially in the field of oncology. Radiomics provide assistancein diagnosis of cancer, planning of treatment strategy, and predictionof survival. Radiomics in neuro-oncology has progressed significantly inthe recent past. Deep learning has outperformed conventional machinelearning methods in most image-based applications. Convolutional neu-ral networks (CNNs) have seen some popularity in radiomics, since theydo not require hand-crafted features and can automatically extract fea-tures during the learning process. In this regard, it is observed that CNNbased radiomics could provide state-of-the-art results in neuro-oncology,similar to the recent success of such methods in a wide spectrum ofmedical image analysis applications. Herein we present a review of the most recent best practices and establish the future trends for AI enabled radiomics in neuro-oncology.",Arxiv,,"[{'name': 'Syed Muhammad Anwar'}, {'name': 'Tooba Altaf'}, {'name': 'Khola Rafique'}, {'name': 'Harish RaviPrakash'}, {'name': 'Hassan Mohy-ud-Din'}, {'name': 'Ulas Bagci'}]"
