ID	Texte	Origine
1	Please post your questions here instead of creating a new thread. Encourage others who create new posts for questions to post here instead!  Thread will stay alive until next one so keep posting after the date in the title.  Thanks to everyone for answering questions in the previous thread!	reddit
2	Paper: [https://arxiv.org/abs/2305.14292v2](https://arxiv.org/abs/2305.14292v2)   Github: [https://github.com/stanford-oval/WikiChat](https://github.com/stanford-oval/WikiChat)   Abstract:  >This paper presents the first few-shot LLM-based chatbot that almost never hallucinates and has high conversationality and low latency. WikiChat is grounded on the English Wikipedia, the largest curated free-text corpus.   >   >WikiChat generates a response from an LLM, retains only the grounded facts, and combines them with additional information it retrieves from the corpus to form factual and engaging responses. **We distill WikiChat based on GPT-4 into a 7B-parameter LLaMA model with minimal loss of quality, to significantly improve its latency, cost and privacy, and facilitate research and deployment.**   >   >Using a novel hybrid human-and-LLM evaluation methodology, we show that our best system achieves 97.3% factual accuracy in simulated conversations. It significantly outperforms all retrieval-based and LLM-based baselines, and by 3.9%, 38.6% and 51.0% on head, tail and recent knowledge compared to GPT-4. Compared to previous state-of-the-art retrieval-based chatbots, WikiChat is also significantly more informative and engaging, just like an LLM.   >   >**WikiChat achieves 97.9% factual accuracy in conversations with human users about recent topics, 55.0% better than GPT-4,** while receiving significantly higher user ratings and more favorable comments.   https://preview.redd.it/9mhpdh300bbc1.jpg?width=1225&format=pjpg&auto=webp&s=cb64b717e920d7bf727782f7c803500ae838d6ef  https://preview.redd.it/5dxesl200bbc1.jpg?width=862&format=pjpg&auto=webp&s=b6de0cda980eec3cf3484ff1f9cd6dc1acf13505  https://preview.redd.it/j387vl200bbc1.jpg?width=914&format=pjpg&auto=webp&s=736fb922c1f98f4c7b132f1c153f4653a8b85441  https://preview.redd.it/3hnxqi200bbc1.jpg?width=923&format=pjpg&auto=webp&s=95b40a9cf67d7f3729dae85878db67a262cc5201	reddit
3	Cutting-plane methods are well-studied localization(and optimization) algorithms. We show that they provide a natural framework to perform machinelearning ---and not just to solve optimization problems posed by machinelearning--- in addition to their intended optimization use. In particular, theyallow one to learn sparse classifiers and provide good compression schemes.Moreover, we show that very little effort is required to turn them intoeffective active learning methods. This last property provides a generic way todesign a whole family of active learning algorithms from existing passivemethods. We present numerical simulations testifying of the relevance ofcutting-plane methods for passive and active learning tasks.	arxiv
4	The Internet as we know it Today, comprises several fundamental interrelated networks, among which is the Internet of Things (IoT). Despite their versatility, several IoT devices are vulnerable from a security perspective, which renders them as a favorable target for multiple security breaches, especially botnet attacks. In this study, the conceptual frameworks of IoT botnet attacks will be explored, alongside several machinelearning based botnet detection techniques. This study also analyzes and contrasts several botnet Detection techniques based on the Bot-IoT Dataset; a recent realistic IoT dataset that comprises state-of-the-art IoT botnet attack scenarios.	arxiv
5	Artificial intelligence (AI) enabled radiomics has evolved immensely especially in the field of oncology. Radiomics provide assistancein diagnosis of cancer, planning of treatment strategy, and predictionof survival. Radiomics in neuro-oncology has progressed significantly inthe recent past. Deep learning has outperformed conventional machinelearning methods in most image-based applications. Convolutional neu-ral networks (CNNs) have seen some popularity in radiomics, since theydo not require hand-crafted features and can automatically extract fea-tures during the learning process. In this regard, it is observed that CNNbased radiomics could provide state-of-the-art results in neuro-oncology,similar to the recent success of such methods in a wide spectrum ofmedical image analysis applications. Herein we present a review of the most recent best practices and establish the future trends for AI enabled radiomics in neuro-oncology.	arxiv
6	The diagnosis, prognosis, and treatment of patients with musculoskeletal (MSK) disorders require radiology imaging (using computed tomography, magnetic resonance imaging(MRI), and ultrasound) and their precise analysis by expert radiologists. Radiology scans can also help assessment of metabolic health, aging, and diabetes. This study presents how machinelearning, specifically deep learning methods, can be used for rapidand accurate image analysis of MRI scans, an unmet clinicalneed in MSK radiology. As a challenging example, we focus on automatic analysis of knee images from MRI scans and study machine learning classification of various abnormalities including meniscus and anterior cruciate ligament tears. Using widely used convolutional neural network (CNN) based architectures, we comparatively evaluated the knee abnormality classification performances of different neural network architectures under limited imaging data regime and compared single and multi-view imaging when classifying the abnormalities. Promising results indicated the potential use of multi-view deep learning based classification of MSK abnormalities in routine clinical assessment.	arxiv
7	Disruption prediction and mitigation is of key importance in the development of sustainable tokamakreactors. Machine learning has become a key tool in this endeavour. In this paper multiple machinelearning models will be tested and compared. A particular focus has been placed on their portability.This describes how easily the models can be used with data from new devices. The methods used inthis paper are support vector machine, 2-tiered support vector machine, random forest, gradient boostedtrees and long-short term memory. The results show that the support vector machine performanceis marginally better among the standard models, while the gradient boosted trees performed the worst.The portable variant of each model had lower performance. Random forest obtained the highest portableperformance. Results also suggest that disruptions can be detected as early as 600ms before the event.An analysis of the computational cost showed all models run in less than 1ms, allowing sufficient timefor disruption mitigation.	arxiv
8	Regression problems have been widely studied in machinelearning literature resulting in a plethora of regression models and performance measures. However, there are few techniques specially dedicated to solve the problem of how to incorporate categorical features to regression problems. Usually, categorical feature encoders are general enough to cover both classification and regression problems. This lack of specificity results in underperforming regression models. In this paper,we provide an in-depth analysis of how to tackle high cardinality categor-ical features with the quantile. Our proposal outperforms state-of-the-encoders, including the traditional statistical mean target encoder, when considering the Mean Absolute Error, especially in the presence of long-tailed or skewed distributions. Besides, to deal with possible overfitting when there are categories with small support, our encoder benefits from additive smoothing. Finally, we describe how to expand the encoded values by creating a set of features with different quantiles. This expanded encoder provides a more informative output about the categorical feature in question, further boosting the performance of the regression model.	arxiv
9	In this technical report, we present our solution of KDD Cup 2021 OGB Large-Scale Challenge - PCQM4M-LSC Track. We adopt Graphormer and ExpC as our basic models. We train each model by 8-fold cross-validation, and additionally train two Graphormer models on the union of training and validation sets with different random seeds. For final submission, we use a naive ensemble for these 18 models by taking average of their outputs. Using our method, our team MachineLearning achieved 0.1200 MAE on test set, which won the first place in KDD Cup graph prediction track.	arxiv
10	Quantum phase estimation is a paradigmatic problem in quantum sensing andmetrology. Here we show that adaptive methods based on classical machinelearning algorithms can be used to enhance the precision of quantum phase estimation when noisy non-entangled qubits are used as sensors. We employ the Differential Evolution (DE) and Particle Swarm Optimization (PSO) algorithms to this task and we identify the optimal feedback policies which minimize the Holevo variance. We benchmark these schemes with respect to scenarios that include Gaussian and Random Telegraph fluctuations as well as reduced Ramsey-fringe visibility due to decoherence. We discuss their robustness against noise in connection with real experimental setups such as Mach-Zehnder interferometry with optical photons and Ramsey interferometry in trapped ions,superconducting qubits and nitrogen-vacancy (NV) centers in diamond.	arxiv
11	"The fifth generation (5G) and beyond wireless networks are foreseen to operate in a fully automated manner, in order to fulfill the promise of ultra-short latency, meet the exponentially increasing resource requirements, and offer the quality of experience (QoE) expected from end-users. Among the ingredients involved in such environments, network slicing enables the creation of logical networks tailored to support specific application demands (i.e., service level agreement SLA, quality of service QoS, etc.) on top of physical infrastructure. This creates the need for mechanisms that can collect spatiotemporal information on users'service consumption, and identify meaningful insights and patterns, leveraging machinelearning techniques. In this vein, our paper proposes a framework dubbed""SOCLfor"" the Service Oriented CLustering, analysis and profiling of users (i.e., humans, sensors, etc.) when consuming enhanced Mobile BroadBand (eMBB) applications, internet of things (IoT) services, and unmanned aerial vehicles services (UAVs). SOCL relies mainly on the realistic network simulation framework""network slice planne""(NSP), and two clustering methods namely K-means and hierarchical clustering. The obtained results showcase interesting features, highlighting the benefit of the proposed framework."	arxiv
12	High temperature properties of ceria surfaces are important for many applications. Here we report the temperature dependences of surface energy for the (111) and (110) CeO2 obtained in the framework of the extended two-stage upsampled thermodynamic integration using Langevin dynamics (TU-TILD). The method was used together with machinelearning potentials called moment tensor potentials (MTPs), which were fitted to the results of the ab initio MD calculations for (111) and (110) CeO2 at different temperatures. The parameters of MTPs training and fitting were tested and the optimal algorithm for the ceria systems was proposed. We found that the temperature increases from 0 K to 2100 K led to the decrease of the Helmholtz free energy of (111) CeO2 from 0.78 J/m2 to 0.64 J/m2. The energy of (110) CeO2 dropped from 1.19 J/m2 at 0 K to 0.92 J/m2 at 1800 K. We show that it is important to take anharmonicity into account as simple consideration of volume expansion gives wrong temperature dependences of the surface energies.	arxiv
